\relax 
\providecommand\hyper@newdestlabel[2]{}
\citation{ewetasker}
\citation{apiai}
\citation{actions}
\citation{watson}
\citation{home}
\citation{estimote}
\citation{mip}
\@writefile{toc}{\contentsline {chapter}{\numberline {2}Enabling Technologies}{5}{chapter.16}}
\@writefile{lof}{\addvspace {10\p@ }}
\@writefile{lot}{\addvspace {10\p@ }}
\newlabel{chap:enabling_technologies}{{2}{5}{Enabling Technologies}{chapter.16}{}}
\@writefile{toc}{\contentsline {section}{\numberline {2.1}Introduction}{5}{section.17}}
\@writefile{toc}{\contentsline {section}{\numberline {2.2}Cognitive Computing}{6}{section.18}}
\@writefile{toc}{\contentsline {subsection}{\numberline {2.2.1}Cognitive computing Properties}{6}{subsection.21}}
\citation{coronado2016task}
\@writefile{toc}{\contentsline {section}{\numberline {2.3}Task Automation}{7}{section.22}}
\citation{ewetasker}
\citation{ewetasker_app}
\@writefile{toc}{\contentsline {section}{\numberline {2.4}Ewetasker}{8}{section.23}}
\@writefile{toc}{\contentsline {section}{\numberline {2.5}Conversation Tools}{8}{section.24}}
\citation{apiai}
\citation{webhook}
\@writefile{toc}{\contentsline {subsection}{\numberline {2.5.1}Api.ai}{9}{subsection.25}}
\providecommand*\caption@xref[2]{\@setref\relax\@undefined{#1}}
\newlabel{fig:apiai_logo}{{\caption@xref {fig:apiai_logo}{ on input line 73}}{9}{Api.ai}{figure.caption.26}{}}
\@writefile{toc}{\contentsline {subsection}{\numberline {2.5.2}IBM Watson Conversation}{10}{subsection.27}}
\newlabel{fig:watson_logo}{{\caption@xref {fig:watson_logo}{ on input line 87}}{10}{IBM Watson Conversation}{figure.caption.29}{}}
\@writefile{toc}{\contentsline {subsubsection}{\numberline {2.5.2.1}IBM Watson Text to Speech}{11}{subsubsection.30}}
\citation{home}
\citation{actions}
\@writefile{toc}{\contentsline {subsubsection}{\numberline {2.5.2.2}IBM Watson Speech to Text}{12}{subsubsection.36}}
\@writefile{toc}{\contentsline {section}{\numberline {2.6}Google Home}{12}{section.38}}
\citation{choi2015smart}
\citation{estimote}
\citation{mip}
\@writefile{lof}{\contentsline {figure}{\numberline {2.1}{\ignorespaces Google Home Device\relax }}{13}{figure.caption.39}}
\newlabel{fig:googlehome}{{2.1}{13}{Google Home Device\relax }{figure.caption.39}{}}
\@writefile{toc}{\contentsline {section}{\numberline {2.7}Beacons}{13}{section.40}}
\@writefile{lof}{\contentsline {figure}{\numberline {2.2}{\ignorespaces Estimote Beacons\relax }}{13}{figure.caption.41}}
\newlabel{fig:beacons}{{2.2}{13}{Estimote Beacons\relax }{figure.caption.41}{}}
\@writefile{toc}{\contentsline {section}{\numberline {2.8}Woowee MiP Robot}{14}{section.42}}
\@writefile{toc}{\contentsline {subsection}{\numberline {2.8.1}Technologies implemented}{14}{subsection.43}}
\@writefile{lof}{\contentsline {figure}{\numberline {2.3}{\ignorespaces MiP Technologies\relax }}{15}{figure.caption.44}}
\newlabel{fig:elementcatalog}{{2.3}{15}{MiP Technologies\relax }{figure.caption.44}{}}
\@writefile{toc}{\contentsline {subsection}{\numberline {2.8.2}Response Actions}{15}{subsection.45}}
\@setckpt{2-enablingtechnologies}{
\setcounter{page}{16}
\setcounter{equation}{0}
\setcounter{enumi}{0}
\setcounter{enumii}{0}
\setcounter{enumiii}{0}
\setcounter{enumiv}{0}
\setcounter{footnote}{6}
\setcounter{mpfootnote}{0}
\setcounter{part}{0}
\setcounter{chapter}{2}
\setcounter{section}{8}
\setcounter{subsection}{2}
\setcounter{subsubsection}{0}
\setcounter{paragraph}{0}
\setcounter{subparagraph}{0}
\setcounter{figure}{3}
\setcounter{table}{0}
\setcounter{AM@survey}{0}
\setcounter{parentequation}{0}
\setcounter{cor}{0}
\setcounter{thm}{0}
\setcounter{ContinuedFloat}{0}
\setcounter{KVtest}{0}
\setcounter{subfigure}{0}
\setcounter{subfigure@save}{0}
\setcounter{lofdepth}{1}
\setcounter{subtable}{0}
\setcounter{subtable@save}{0}
\setcounter{lotdepth}{1}
\setcounter{lstnumber}{3}
\setcounter{Item}{0}
\setcounter{Hfootnote}{6}
\setcounter{bookmark@seq@number}{25}
\setcounter{lstlisting}{0}
\setcounter{section@level}{0}
}
