\relax 
\providecommand\hyper@newdestlabel[2]{}
\@writefile{toc}{\contentsline {chapter}{\numberline {3}Requirement Analysis}{17}{chapter.46}}
\@writefile{lof}{\addvspace {10\p@ }}
\@writefile{lot}{\addvspace {10\p@ }}
\newlabel{chap:requirements}{{3}{17}{Requirement Analysis}{chapter.46}{}}
\@writefile{toc}{\contentsline {section}{\numberline {3.1}Introduction}{17}{section.47}}
\@writefile{toc}{\contentsline {section}{\numberline {3.2}Use cases}{17}{section.48}}
\@writefile{toc}{\contentsline {subsection}{\numberline {3.2.1}System actors}{18}{subsection.49}}
\@writefile{toc}{\contentsline {subsection}{\numberline {3.2.2}Use cases}{19}{subsection.50}}
\@writefile{lof}{\contentsline {figure}{\numberline {3.1}{\ignorespaces Use case diagram\relax }}{19}{figure.caption.51}}
\newlabel{fig:use_case_diagram}{{3.1}{19}{Use case diagram\relax }{figure.caption.51}{}}
\@writefile{toc}{\contentsline {subsubsection}{\numberline {3.2.2.1}Welcome Use Case}{20}{subsubsection.52}}
\@writefile{lof}{\contentsline {figure}{\numberline {3.2}{\ignorespaces Welcome case diagram\relax }}{20}{figure.caption.53}}
\newlabel{fig:elementcatalog}{{3.2}{20}{Welcome case diagram\relax }{figure.caption.53}{}}
\@writefile{toc}{\contentsline {subsubsection}{\numberline {3.2.2.2}Reminder Use Case}{21}{subsubsection.54}}
\@writefile{lof}{\contentsline {figure}{\numberline {3.3}{\ignorespaces Reminder case diagram\relax }}{21}{figure.caption.55}}
\newlabel{fig:elementcatalog}{{3.3}{21}{Reminder case diagram\relax }{figure.caption.55}{}}
\@writefile{toc}{\contentsline {subsection}{\numberline {3.2.3}Conclusions}{21}{subsection.56}}
\@setckpt{3-requisites}{
\setcounter{page}{22}
\setcounter{equation}{0}
\setcounter{enumi}{0}
\setcounter{enumii}{0}
\setcounter{enumiii}{0}
\setcounter{enumiv}{0}
\setcounter{footnote}{0}
\setcounter{mpfootnote}{0}
\setcounter{part}{0}
\setcounter{chapter}{3}
\setcounter{section}{2}
\setcounter{subsection}{3}
\setcounter{subsubsection}{0}
\setcounter{paragraph}{0}
\setcounter{subparagraph}{0}
\setcounter{figure}{3}
\setcounter{table}{0}
\setcounter{AM@survey}{0}
\setcounter{parentequation}{0}
\setcounter{cor}{0}
\setcounter{thm}{0}
\setcounter{ContinuedFloat}{0}
\setcounter{KVtest}{0}
\setcounter{subfigure}{0}
\setcounter{subfigure@save}{0}
\setcounter{lofdepth}{1}
\setcounter{subtable}{0}
\setcounter{subtable@save}{0}
\setcounter{lotdepth}{1}
\setcounter{lstnumber}{3}
\setcounter{Item}{0}
\setcounter{Hfootnote}{6}
\setcounter{bookmark@seq@number}{33}
\setcounter{lstlisting}{0}
\setcounter{section@level}{0}
}
