\relax 
\providecommand\hyper@newdestlabel[2]{}
\@writefile{toc}{\contentsline {chapter}{\numberline {4}Architecture}{23}{chapter.57}}
\@writefile{lof}{\addvspace {10\p@ }}
\@writefile{lot}{\addvspace {10\p@ }}
\newlabel{chap:architecture}{{4}{23}{Architecture}{chapter.57}{}}
\@writefile{toc}{\contentsline {section}{\numberline {4.1}Introduction}{23}{section.58}}
\@writefile{toc}{\contentsline {section}{\numberline {4.2}Overview}{23}{section.59}}
\newlabel{sec:overview}{{4.2}{23}{Overview}{section.59}{}}
\@writefile{lof}{\contentsline {figure}{\numberline {4.1}{\ignorespaces Architecture\relax }}{24}{figure.caption.60}}
\newlabel{fig:architecture}{{4.1}{24}{Architecture\relax }{figure.caption.60}{}}
\@writefile{toc}{\contentsline {section}{\numberline {4.3}Conversation system}{25}{section.61}}
\@writefile{toc}{\contentsline {subsection}{\numberline {4.3.1}Google Home}{25}{subsection.62}}
\@writefile{toc}{\contentsline {subsection}{\numberline {4.3.2}Api.ai}{26}{subsection.63}}
\@writefile{lof}{\contentsline {figure}{\numberline {4.2}{\ignorespaces Api.ai web interface\relax }}{26}{figure.caption.64}}
\newlabel{fig:apiai_web_interface}{{4.2}{26}{Api.ai web interface\relax }{figure.caption.64}{}}
\@writefile{toc}{\contentsline {subsubsection}{\numberline {4.3.2.1}App Module}{27}{subsubsection.65}}
\@writefile{lof}{\contentsline {figure}{\numberline {4.3}{\ignorespaces Api.ai Modules Flow Diagram\relax }}{27}{figure.caption.66}}
\newlabel{fig:apiai_modules_flow}{{4.3}{27}{Api.ai Modules Flow Diagram\relax }{figure.caption.66}{}}
\newlabel{lst:apiaiexample}{{4.1}{28}{Example of response in JSON format from Api.ai:}{lstlisting.67}{}}
\@writefile{lol}{\contentsline {lstlisting}{\numberline {4.1}Example of response in JSON format from Api.ai:}{28}{lstlisting.67}}
\@writefile{toc}{\contentsline {subsubsection}{\numberline {4.3.2.2}Action Manager}{29}{subsubsection.100}}
\@writefile{toc}{\contentsline {subsubsection}{\numberline {4.3.2.3}Reminder Manager}{29}{subsubsection.101}}
\@writefile{toc}{\contentsline {subsection}{\numberline {4.3.3}IBM Watson}{30}{subsection.102}}
\@writefile{lof}{\contentsline {figure}{\numberline {4.4}{\ignorespaces Watson Conversation web interface\relax }}{30}{figure.caption.103}}
\newlabel{fig:watson_web_interface}{{4.4}{30}{Watson Conversation web interface\relax }{figure.caption.103}{}}
\@writefile{toc}{\contentsline {subsubsection}{\numberline {4.3.3.1}App Module}{31}{subsubsection.104}}
\@writefile{lof}{\contentsline {figure}{\numberline {4.5}{\ignorespaces Watson Modules Flow Diagram\relax }}{31}{figure.caption.105}}
\newlabel{fig:elementcatalog}{{4.5}{31}{Watson Modules Flow Diagram\relax }{figure.caption.105}{}}
\@writefile{toc}{\contentsline {subsubsection}{\numberline {4.3.3.2}Conversation Module}{32}{subsubsection.106}}
\newlabel{lst:watsonexample}{{4.2}{32}{Example of response in JSON format from IBM Watson Conversation:}{lstlisting.107}{}}
\@writefile{lol}{\contentsline {lstlisting}{\numberline {4.2}Example of response in JSON format from IBM Watson Conversation:}{32}{lstlisting.107}}
\@writefile{toc}{\contentsline {subsubsection}{\numberline {4.3.3.3}Text To Speech Module}{32}{subsubsection.130}}
\@writefile{toc}{\contentsline {subsubsection}{\numberline {4.3.3.4}Speech To Text Module}{33}{subsubsection.131}}
\@writefile{toc}{\contentsline {section}{\numberline {4.4}Ewetasker server}{33}{section.132}}
\@writefile{toc}{\contentsline {subsection}{\numberline {4.4.1}Channels Created}{34}{subsection.133}}
\@writefile{lof}{\contentsline {figure}{\numberline {4.6}{\ignorespaces Ewetasker Channel Administration Interface\relax }}{34}{figure.caption.134}}
\newlabel{fig:ewe_tasker_channels}{{4.6}{34}{Ewetasker Channel Administration Interface\relax }{figure.caption.134}{}}
\citation{time}
\citation{ewe}
\citation{rdf}
\@writefile{toc}{\contentsline {subsubsection}{\numberline {4.4.1.1}Time Channel}{35}{subsubsection.135}}
\@writefile{toc}{\contentsline {subsubsection}{\numberline {4.4.1.2}Robot Channel}{35}{subsubsection.136}}
\@writefile{toc}{\contentsline {subsection}{\numberline {4.4.2}Sensors involved}{35}{subsection.137}}
\@writefile{toc}{\contentsline {subsection}{\numberline {4.4.3}Actuators involved}{36}{subsection.138}}
\@writefile{toc}{\contentsline {section}{\numberline {4.5}Proxy Server Module}{36}{section.139}}
\@writefile{toc}{\contentsline {subsection}{\numberline {4.5.1}Action Trigger}{36}{subsection.140}}
\newlabel{lst:proxyexample}{{4.3}{36}{Example of POST request to Proxy Server for switching on the light using CURL:}{lstlisting.141}{}}
\@writefile{lol}{\contentsline {lstlisting}{\numberline {4.3}Example of POST request to Proxy Server for switching on the light using CURL:}{36}{lstlisting.141}}
\citation{mip_python}
\citation{mip_protocol}
\@writefile{toc}{\contentsline {subsection}{\numberline {4.5.2}Control MiP}{37}{subsection.143}}
\@writefile{lof}{\contentsline {figure}{\numberline {4.7}{\ignorespaces MiP WooWee Robot\relax }}{37}{figure.caption.144}}
\newlabel{fig:mip}{{4.7}{37}{MiP WooWee Robot\relax }{figure.caption.144}{}}
\citation{ewetasker_app}
\@writefile{toc}{\contentsline {subsection}{\numberline {4.5.3}Daemon Time}{38}{subsection.145}}
\@writefile{toc}{\contentsline {section}{\numberline {4.6}Mobile Application}{38}{section.146}}
\@setckpt{4-architecture}{
\setcounter{page}{39}
\setcounter{equation}{0}
\setcounter{enumi}{0}
\setcounter{enumii}{0}
\setcounter{enumiii}{0}
\setcounter{enumiv}{0}
\setcounter{footnote}{0}
\setcounter{mpfootnote}{0}
\setcounter{part}{0}
\setcounter{chapter}{4}
\setcounter{section}{6}
\setcounter{subsection}{0}
\setcounter{subsubsection}{0}
\setcounter{paragraph}{0}
\setcounter{subparagraph}{0}
\setcounter{figure}{7}
\setcounter{table}{0}
\setcounter{AM@survey}{0}
\setcounter{parentequation}{0}
\setcounter{cor}{0}
\setcounter{thm}{0}
\setcounter{ContinuedFloat}{0}
\setcounter{KVtest}{0}
\setcounter{subfigure}{0}
\setcounter{subfigure@save}{0}
\setcounter{lofdepth}{1}
\setcounter{subtable}{0}
\setcounter{subtable@save}{0}
\setcounter{lotdepth}{1}
\setcounter{lstnumber}{2}
\setcounter{Item}{0}
\setcounter{Hfootnote}{6}
\setcounter{bookmark@seq@number}{58}
\setcounter{lstlisting}{3}
\setcounter{section@level}{0}
}
