\relax 
\providecommand\hyper@newdestlabel[2]{}
\@writefile{toc}{\contentsline {chapter}{\numberline {3}Requirement Analysis}{21}{chapter.93}}
\@writefile{lof}{\addvspace {10\p@ }}
\@writefile{lot}{\addvspace {10\p@ }}
\newlabel{chap:requirements}{{3}{21}{Requirement Analysis}{chapter.93}{}}
\@writefile{toc}{\contentsline {section}{\numberline {3.1}Overview}{23}{section.94}}
\@writefile{toc}{\contentsline {section}{\numberline {3.2}Use cases}{23}{section.95}}
\@writefile{toc}{\contentsline {subsection}{\numberline {3.2.1}Actors dictionary}{23}{subsection.96}}
\@writefile{lot}{\contentsline {table}{\numberline {3.1}{\ignorespaces Actors list\relax }}{24}{table.caption.97}}
\newlabel{tab:actores}{{3.1}{24}{Actors list\relax }{table.caption.97}{}}
\@writefile{toc}{\contentsline {subsection}{\numberline {3.2.2}OMR composition and search use case}{25}{subsection.98}}
\@writefile{lof}{\contentsline {figure}{\numberline {3.1}{\ignorespaces Composition and Search use case\relax }}{25}{figure.caption.99}}
\newlabel{fig:pack-uc1}{{3.1}{25}{Composition and Search use case\relax }{figure.caption.99}{}}
\@writefile{toc}{\contentsline {subsubsection}{\numberline {3.2.2.1}Keyword search}{26}{subsubsection.100}}
\newlabel{subsec:keywordsearch}{{3.2.2.1}{26}{Keyword search}{subsubsection.100}{}}
\@writefile{toc}{\contentsline {subsubsection}{\numberline {3.2.2.2}Mash-up browse by category}{27}{subsubsection.102}}
\newlabel{subsec:mashupbrowsebycat}{{3.2.2.2}{27}{Mash-up browse by category}{subsubsection.102}{}}
\@writefile{toc}{\contentsline {subsubsection}{\numberline {3.2.2.3}mash-up search by query}{28}{subsubsection.104}}
\newlabel{subsec:mashupsearchbyquery}{{3.2.2.3}{28}{mash-up search by query}{subsubsection.104}{}}
\@writefile{toc}{\contentsline {subsubsection}{\numberline {3.2.2.4}mash-up compose}{29}{subsubsection.106}}
\newlabel{subsec:mashupcompose}{{3.2.2.4}{29}{mash-up compose}{subsubsection.106}{}}
\@writefile{toc}{\contentsline {subsubsection}{\numberline {3.2.2.5}Ask suggestion}{30}{subsubsection.108}}
\newlabel{subsec:askquestion}{{3.2.2.5}{30}{Ask suggestion}{subsubsection.108}{}}
\@writefile{toc}{\contentsline {subsection}{\numberline {3.2.3}OMR discovery and administration use case}{31}{subsection.110}}
\@writefile{lof}{\contentsline {figure}{\numberline {3.2}{\ignorespaces OMR discovery and administration use case\relax }}{31}{figure.caption.111}}
\newlabel{fig:pack-uc2}{{3.2}{31}{OMR discovery and administration use case\relax }{figure.caption.111}{}}
\@writefile{toc}{\contentsline {subsubsection}{\numberline {3.2.3.1}Automatic mash-up feeding}{32}{subsubsection.112}}
\newlabel{subsec:automatedmashupfeeding}{{3.2.3.1}{32}{Automatic mash-up feeding}{subsubsection.112}{}}
\@writefile{toc}{\contentsline {subsubsection}{\numberline {3.2.3.2}HTML Form discovery and description}{33}{subsubsection.114}}
\newlabel{subsec:formdiscoveryanddescription}{{3.2.3.2}{33}{HTML Form discovery and description}{subsubsection.114}{}}
\@writefile{toc}{\contentsline {subsubsection}{\numberline {3.2.3.3}mash-up registry integration}{34}{subsubsection.116}}
\newlabel{subsec:mashupregistryintegration}{{3.2.3.3}{34}{mash-up registry integration}{subsubsection.116}{}}
\@writefile{toc}{\contentsline {subsubsection}{\numberline {3.2.3.4}API based integration}{35}{subsubsection.118}}
\newlabel{subsec:apibasedintegration}{{3.2.3.4}{35}{API based integration}{subsubsection.118}{}}
\@writefile{toc}{\contentsline {subsubsection}{\numberline {3.2.3.5}Scraping based integration}{36}{subsubsection.120}}
\newlabel{subsec:scrappybasedintegration}{{3.2.3.5}{36}{Scraping based integration}{subsubsection.120}{}}
\@writefile{toc}{\contentsline {subsubsection}{\numberline {3.2.3.6}Manual mash-up management}{37}{subsubsection.122}}
\newlabel{subsec:manualmashupmanagement}{{3.2.3.6}{37}{Manual mash-up management}{subsubsection.122}{}}
\@writefile{toc}{\contentsline {subsubsection}{\numberline {3.2.3.7}Browse pending mash-ups and services}{38}{subsubsection.124}}
\newlabel{subsec:pending}{{3.2.3.7}{38}{Browse pending mash-ups and services}{subsubsection.124}{}}
\@writefile{toc}{\contentsline {subsubsection}{\numberline {3.2.3.8}Validate a mash-up / service}{39}{subsubsection.126}}
\newlabel{subsec:validate}{{3.2.3.8}{39}{Validate a mash-up / service}{subsubsection.126}{}}
\@writefile{toc}{\contentsline {subsubsection}{\numberline {3.2.3.9}Reject a mash-up / service}{40}{subsubsection.128}}
\newlabel{subsec:reject}{{3.2.3.9}{40}{Reject a mash-up / service}{subsubsection.128}{}}
\@writefile{toc}{\contentsline {subsection}{\numberline {3.2.4}Web interface use case}{41}{subsection.130}}
\@writefile{lof}{\contentsline {figure}{\numberline {3.3}{\ignorespaces Web interface use case\relax }}{41}{figure.caption.131}}
\newlabel{fig:pack-uc3}{{3.3}{41}{Web interface use case\relax }{figure.caption.131}{}}
\@writefile{toc}{\contentsline {subsubsection}{\numberline {3.2.4.1}Request available mash-ups}{42}{subsubsection.132}}
\newlabel{subsec:requestavailable}{{3.2.4.1}{42}{Request available mash-ups}{subsubsection.132}{}}
\@writefile{toc}{\contentsline {subsubsection}{\numberline {3.2.4.2}Search mash-ups by query}{43}{subsubsection.134}}
\newlabel{subsec:searchquery}{{3.2.4.2}{43}{Search mash-ups by query}{subsubsection.134}{}}
\@writefile{toc}{\contentsline {subsection}{\numberline {3.2.5}Conclusions}{43}{subsection.136}}
\@setckpt{4-requisites}{
\setcounter{page}{44}
\setcounter{equation}{0}
\setcounter{enumi}{0}
\setcounter{enumii}{0}
\setcounter{enumiii}{0}
\setcounter{enumiv}{0}
\setcounter{footnote}{0}
\setcounter{mpfootnote}{0}
\setcounter{part}{0}
\setcounter{chapter}{3}
\setcounter{section}{2}
\setcounter{subsection}{5}
\setcounter{subsubsection}{0}
\setcounter{paragraph}{0}
\setcounter{subparagraph}{0}
\setcounter{figure}{3}
\setcounter{table}{1}
\setcounter{parentequation}{0}
\setcounter{cor}{0}
\setcounter{thm}{0}
\setcounter{ContinuedFloat}{0}
\setcounter{KVtest}{0}
\setcounter{subfigure}{0}
\setcounter{subfigure@save}{0}
\setcounter{lofdepth}{1}
\setcounter{subtable}{0}
\setcounter{subtable@save}{0}
\setcounter{lotdepth}{1}
\setcounter{lstnumber}{20}
\setcounter{Item}{0}
\setcounter{Hfootnote}{9}
\setcounter{bookmark@seq@number}{43}
\setcounter{lstlisting}{0}
\setcounter{section@level}{0}
}
