\relax 
\providecommand\hyper@newdestlabel[2]{}
\citation{overson_developing_2015}
\citation{bostock_d3.js}
\@writefile{toc}{\contentsline {chapter}{\numberline {4}Visualisation Server}{23}{chapter.141}}
\@writefile{lof}{\addvspace {10\p@ }}
\@writefile{lot}{\addvspace {10\p@ }}
\newlabel{chap:visualisationserver}{{4}{23}{Visualisation Server}{chapter.141}{}}
\@writefile{toc}{\contentsline {section}{\numberline {4.1}Introduction}{23}{section.142}}
\@writefile{toc}{\contentsline {section}{\numberline {4.2}Analysis}{23}{section.144}}
\citation{teller_data_2013}
\@writefile{toc}{\contentsline {subsection}{\numberline {4.2.1}Review of online visualisation dashboards for sentiment analysis}{24}{subsection.145}}
\@writefile{toc}{\contentsline {subsection}{\numberline {4.2.2}Mock-up}{24}{subsection.149}}
\@writefile{lof}{\contentsline {figure}{\numberline {4.1}{\ignorespaces Events tab mock-up\relax }}{25}{figure.caption.151}}
\newlabel{fig:eventstab}{{4.1}{25}{Events tab mock-up\relax }{figure.caption.151}{}}
\@writefile{lof}{\contentsline {figure}{\numberline {4.2}{\ignorespaces Teams tab mock-up\relax }}{25}{figure.caption.152}}
\newlabel{fig:teamstab}{{4.2}{25}{Teams tab mock-up\relax }{figure.caption.152}{}}
\@writefile{lof}{\contentsline {figure}{\numberline {4.3}{\ignorespaces Players tab mock-up\relax }}{26}{figure.caption.153}}
\newlabel{fig:playerstab}{{4.3}{26}{Players tab mock-up\relax }{figure.caption.153}{}}
\@writefile{toc}{\contentsline {section}{\numberline {4.3}Widgets}{27}{section.154}}
\newlabel{subsec:widgets}{{4.3}{27}{Widgets}{section.154}{}}
\@writefile{toc}{\contentsline {subsection}{\numberline {4.3.1}Player Ranking}{27}{subsection.155}}
\newlabel{subsubsec:playerank}{{4.3.1}{27}{Player Ranking}{subsection.155}{}}
\@writefile{lof}{\contentsline {figure}{\numberline {4.4}{\ignorespaces Player ranking widget\relax }}{27}{figure.caption.156}}
\newlabel{fig:playerank}{{4.4}{27}{Player ranking widget\relax }{figure.caption.156}{}}
\@writefile{toc}{\contentsline {subsection}{\numberline {4.3.2}Team Ranking}{28}{subsection.157}}
\newlabel{subsubsec:teamrank}{{4.3.2}{28}{Team Ranking}{subsection.157}{}}
\@writefile{toc}{\contentsline {subsection}{\numberline {4.3.3}Sentiment Map}{28}{subsection.158}}
\newlabel{subsubsec:sentmap}{{4.3.3}{28}{Sentiment Map}{subsection.158}{}}
\@writefile{lof}{\contentsline {figure}{\numberline {4.5}{\ignorespaces Map widget\relax }}{28}{figure.caption.159}}
\newlabel{fig:mapwidget}{{4.5}{28}{Map widget\relax }{figure.caption.159}{}}
\@writefile{toc}{\contentsline {subsection}{\numberline {4.3.4}Emotion Map}{29}{subsection.160}}
\newlabel{subsubsec:emomap}{{4.3.4}{29}{Emotion Map}{subsection.160}{}}
\@writefile{toc}{\contentsline {subsection}{\numberline {4.3.5}Emotion Radar}{29}{subsection.161}}
\newlabel{subsubsec:emoradar}{{4.3.5}{29}{Emotion Radar}{subsection.161}{}}
\@writefile{toc}{\contentsline {subsection}{\numberline {4.3.6}Tweet Chart}{29}{subsection.163}}
\newlabel{subsubsec:tweetchart}{{4.3.6}{29}{Tweet Chart}{subsection.163}{}}
\@writefile{lof}{\contentsline {figure}{\numberline {4.6}{\ignorespaces Emotion Radar widget\relax }}{30}{figure.caption.162}}
\newlabel{fig:radarwidget}{{4.6}{30}{Emotion Radar widget\relax }{figure.caption.162}{}}
\@writefile{lof}{\contentsline {figure}{\numberline {4.7}{\ignorespaces Tweet chart widget\relax }}{30}{figure.caption.164}}
\newlabel{fig:tweetchartwidget}{{4.7}{30}{Tweet chart widget\relax }{figure.caption.164}{}}
\@writefile{toc}{\contentsline {subsection}{\numberline {4.3.7}Number Widget}{31}{subsection.165}}
\newlabel{subsubsec:numchart}{{4.3.7}{31}{Number Widget}{subsection.165}{}}
\@writefile{toc}{\contentsline {subsection}{\numberline {4.3.8}Sentiment Chart}{31}{subsection.166}}
\newlabel{subsubsec:sentchart}{{4.3.8}{31}{Sentiment Chart}{subsection.166}{}}
\@writefile{lof}{\contentsline {figure}{\numberline {4.8}{\ignorespaces Sentiment chart widget\relax }}{31}{figure.caption.167}}
\newlabel{fig:sentevol}{{4.8}{31}{Sentiment chart widget\relax }{figure.caption.167}{}}
\@writefile{toc}{\contentsline {subsection}{\numberline {4.3.9}Top Team}{32}{subsection.168}}
\newlabel{subsec:topteam}{{4.3.9}{32}{Top Team}{subsection.168}{}}
\@writefile{lof}{\contentsline {figure}{\numberline {4.9}{\ignorespaces Top team widget\relax }}{32}{figure.caption.169}}
\newlabel{fig:topteamwidget}{{4.9}{32}{Top team widget\relax }{figure.caption.169}{}}
\@writefile{toc}{\contentsline {subsection}{\numberline {4.3.10}Top Player}{32}{subsection.170}}
\@writefile{lof}{\contentsline {figure}{\numberline {4.10}{\ignorespaces Top player widget\relax }}{33}{figure.caption.171}}
\newlabel{fig:topplayerwidget}{{4.10}{33}{Top player widget\relax }{figure.caption.171}{}}
\@writefile{toc}{\contentsline {section}{\numberline {4.4}Dashboard Tabs}{33}{section.172}}
\@writefile{toc}{\contentsline {subsection}{\numberline {4.4.1}Events tab}{33}{subsection.173}}
\newlabel{subsec:eventstab}{{4.4.1}{33}{Events tab}{subsection.173}{}}
\@writefile{toc}{\contentsline {subsection}{\numberline {4.4.2}Teams tab}{34}{subsection.174}}
\newlabel{subsubsec:teamstab}{{4.4.2}{34}{Teams tab}{subsection.174}{}}
\@writefile{toc}{\contentsline {subsection}{\numberline {4.4.3}Players tab}{34}{subsection.175}}
\@writefile{toc}{\contentsline {subsection}{\numberline {4.4.4}SPARQL editor tab}{35}{subsection.176}}
\@setckpt{4-visualisationserver}{
\setcounter{page}{36}
\setcounter{equation}{0}
\setcounter{enumi}{0}
\setcounter{enumii}{0}
\setcounter{enumiii}{0}
\setcounter{enumiv}{0}
\setcounter{footnote}{2}
\setcounter{mpfootnote}{0}
\setcounter{part}{0}
\setcounter{chapter}{4}
\setcounter{section}{4}
\setcounter{subsection}{4}
\setcounter{subsubsection}{0}
\setcounter{paragraph}{0}
\setcounter{subparagraph}{0}
\setcounter{figure}{10}
\setcounter{table}{0}
\setcounter{parentequation}{0}
\setcounter{cor}{0}
\setcounter{thm}{0}
\setcounter{ContinuedFloat}{0}
\setcounter{KVtest}{0}
\setcounter{subfigure}{0}
\setcounter{subfigure@save}{0}
\setcounter{lofdepth}{1}
\setcounter{subtable}{0}
\setcounter{subtable@save}{0}
\setcounter{lotdepth}{1}
\setcounter{lstnumber}{3}
\setcounter{Item}{0}
\setcounter{Hfootnote}{11}
\setcounter{bookmark@seq@number}{58}
\setcounter{lstlisting}{0}
\setcounter{section@level}{0}
}
