\relax 
\providecommand\hyper@newdestlabel[2]{}
\@writefile{toc}{\contentsline {chapter}{\numberline {5}Conclusions and future work}{39}{chapter.170}}
\@writefile{lof}{\addvspace {10\p@ }}
\@writefile{lot}{\addvspace {10\p@ }}
\newlabel{chap:conclusions}{{5}{39}{Conclusions and future work}{chapter.170}{}}
\@writefile{toc}{\contentsline {section}{\numberline {5.1}Conclusions}{39}{section.171}}
\newlabel{sec:conconclusions}{{5.1}{39}{Conclusions}{section.171}{}}
\@writefile{toc}{\contentsline {section}{\numberline {5.2}Achieved goals}{40}{section.172}}
\newlabel{sec:achievedgoals}{{5.2}{40}{Achieved goals}{section.172}{}}
\citation{gglassupdate}
\citation{gglassnotdead}
\@writefile{toc}{\contentsline {section}{\numberline {5.3}Problems faced}{41}{section.173}}
\newlabel{sec:problemsfaced}{{5.3}{41}{Problems faced}{section.173}{}}
\@writefile{toc}{\contentsline {section}{\numberline {5.4}Future work}{41}{section.174}}
\newlabel{sec:futurework}{{5.4}{41}{Future work}{section.174}{}}
\@setckpt{5-conclusions}{
\setcounter{page}{43}
\setcounter{equation}{0}
\setcounter{enumi}{2}
\setcounter{enumii}{0}
\setcounter{enumiii}{0}
\setcounter{enumiv}{0}
\setcounter{footnote}{0}
\setcounter{mpfootnote}{0}
\setcounter{part}{0}
\setcounter{chapter}{5}
\setcounter{section}{4}
\setcounter{subsection}{0}
\setcounter{subsubsection}{0}
\setcounter{paragraph}{0}
\setcounter{subparagraph}{0}
\setcounter{figure}{0}
\setcounter{table}{0}
\setcounter{parentequation}{0}
\setcounter{cor}{0}
\setcounter{thm}{0}
\setcounter{ContinuedFloat}{0}
\setcounter{KVtest}{0}
\setcounter{subfigure}{0}
\setcounter{subfigure@save}{0}
\setcounter{lofdepth}{1}
\setcounter{subtable}{0}
\setcounter{subtable@save}{0}
\setcounter{lotdepth}{1}
\setcounter{lstnumber}{32}
\setcounter{Item}{6}
\setcounter{Hfootnote}{1}
\setcounter{bookmark@seq@number}{65}
\setcounter{lstlisting}{0}
\setcounter{section@level}{0}
}
