\relax 
\providecommand\hyper@newdestlabel[2]{}
\@writefile{toc}{\contentsline {chapter}{\numberline {7}Prototype and example usage}{51}{chapter.162}}
\@writefile{lof}{\addvspace {10\p@ }}
\@writefile{lot}{\addvspace {10\p@ }}
\@writefile{toc}{\contentsline {section}{\numberline {7.1}Introduction}{53}{section.163}}
\@writefile{lot}{\contentsline {table}{\numberline {7.1}{\ignorespaces Actors list\relax }}{53}{table.caption.164}}
\newlabel{tab:actoresusecase}{{7.1}{53}{Actors list\relax }{table.caption.164}{}}
\@writefile{lot}{\contentsline {table}{\numberline {7.2}{\ignorespaces Execution enviroment\relax }}{54}{table.caption.165}}
\newlabel{tab:executionenviroment}{{7.2}{54}{Execution enviroment\relax }{table.caption.165}{}}
\@writefile{toc}{\contentsline {section}{\numberline {7.2}Automatic service discovery}{55}{section.166}}
\newlabel{sec:autodiscovery}{{7.2}{55}{Automatic service discovery}{section.166}{}}
\@writefile{lol}{\contentsline {lstlisting}{\numberline {7.1}Scrappy launching}{55}{lstlisting.167}}
\@writefile{lot}{\contentsline {table}{\numberline {7.3}{\ignorespaces Scrappy execution statistics\relax }}{55}{table.caption.171}}
\newlabel{tab:scrappyelapsedtime}{{7.3}{55}{Scrappy execution statistics\relax }{table.caption.171}{}}
\@writefile{lot}{\contentsline {table}{\numberline {7.4}{\ignorespaces OMR components summary\relax }}{55}{table.caption.172}}
\newlabel{tab:omrcomsum}{{7.4}{55}{OMR components summary\relax }{table.caption.172}{}}
\newlabel{lst:fullexamplerdf}{{7.2}{56}{Full RDF of scrapped widget}{lstlisting.174}{}}
\@writefile{lol}{\contentsline {lstlisting}{\numberline {7.2}Full RDF of scrapped widget}{56}{lstlisting.174}}
\@writefile{lof}{\contentsline {figure}{\numberline {7.1}{\ignorespaces Original site and corresponding LiMOn mapping\relax }}{57}{figure.caption.173}}
\newlabel{fig:programmablewebgoogle}{{7.1}{57}{Original site and corresponding LiMOn mapping\relax }{figure.caption.173}{}}
\@writefile{toc}{\contentsline {section}{\numberline {7.3}Ranking algorithm}{59}{section.229}}
\newlabel{lst:runranking}{{7.3}{59}{}{lstlisting.230}{}}
\newlabel{lst:rankingconfigfile}{{7.3}{59}{Ranking algorithm configuration file}{lstlisting.232}{}}
\@writefile{lol}{\contentsline {lstlisting}{\numberline {7.3}Ranking algorithm configuration file}{59}{lstlisting.232}}
\@writefile{lot}{\contentsline {table}{\numberline {7.5}{\ignorespaces Ranking algorithm execution statistics\relax }}{59}{table.caption.241}}
\newlabel{tab:rankingelapsedtime}{{7.5}{59}{Ranking algorithm execution statistics\relax }{table.caption.241}{}}
\newlabel{lst:rdfranking}{{7.4}{59}{Ranking algorithm output}{lstlisting.242}{}}
\@writefile{lol}{\contentsline {lstlisting}{\numberline {7.4}Ranking algorithm output}{59}{lstlisting.242}}
\@writefile{toc}{\contentsline {section}{\numberline {7.4}OMR administrative interface}{60}{section.246}}
\@writefile{lof}{\contentsline {figure}{\numberline {7.2}{\ignorespaces Main view OMR Administrator\relax }}{60}{figure.caption.249}}
\newlabel{fig:omradminmainview}{{7.2}{60}{Main view OMR Administrator\relax }{figure.caption.249}{}}
\@writefile{lof}{\contentsline {figure}{\numberline {7.3}{\ignorespaces OMR admin top menu\relax }}{60}{figure.caption.250}}
\newlabel{fig:topmenuomr}{{7.3}{60}{OMR admin top menu\relax }{figure.caption.250}{}}
\@writefile{toc}{\contentsline {subsection}{\numberline {7.4.1}Available general actions}{61}{subsection.251}}
\newlabel{subsec:omravailableactions}{{7.4.1}{61}{Available general actions}{subsection.251}{}}
\@writefile{toc}{\contentsline {subsubsection}{\numberline {7.4.1.1}Filtering}{61}{subsubsection.252}}
\@writefile{lof}{\contentsline {figure}{\numberline {7.4}{\ignorespaces Filtering by LiMOn properties\relax }}{61}{figure.caption.253}}
\newlabel{fig:limonfiltering}{{7.4}{61}{Filtering by LiMOn properties\relax }{figure.caption.253}{}}
\@writefile{lof}{\contentsline {subfigure}{\numberline{(a)}{\ignorespaces {limon:protocol}}}{61}{subfigure.4.1}}
\@writefile{lof}{\contentsline {subfigure}{\numberline{(b)}{\ignorespaces {limon:dataFormat}}}{61}{subfigure.4.2}}
\@writefile{toc}{\contentsline {subsubsection}{\numberline {7.4.1.2}Searching}{61}{subsubsection.256}}
\@writefile{lof}{\contentsline {figure}{\numberline {7.5}{\ignorespaces OMR admin search box\relax }}{61}{figure.caption.257}}
\newlabel{fig:omradminsearchbox}{{7.5}{61}{OMR admin search box\relax }{figure.caption.257}{}}
\@writefile{toc}{\contentsline {subsubsection}{\numberline {7.4.1.3}Obtaining help}{62}{subsubsection.258}}
\@writefile{lof}{\contentsline {figure}{\numberline {7.6}{\ignorespaces OMR admin help\relax }}{62}{figure.caption.259}}
\newlabel{fig:omradminhelp}{{7.6}{62}{OMR admin help\relax }{figure.caption.259}{}}
\@writefile{toc}{\contentsline {subsubsection}{\numberline {7.4.1.4}Statistics}{62}{subsubsection.260}}
\newlabel{subsec:appendixstatistics}{{7.4.1.4}{62}{Statistics}{subsubsection.260}{}}
\@writefile{lof}{\contentsline {figure}{\numberline {7.7}{\ignorespaces OMR see statistics\relax }}{62}{figure.caption.261}}
\newlabel{fig:omradminseestatistics}{{7.7}{62}{OMR see statistics\relax }{figure.caption.261}{}}
\@writefile{toc}{\contentsline {subsection}{\numberline {7.4.2}Reject a resource}{62}{subsection.262}}
\@writefile{lof}{\contentsline {figure}{\numberline {7.8}{\ignorespaces Bad charset encoding in widget description\relax }}{63}{figure.caption.263}}
\newlabel{fig:badencoding}{{7.8}{63}{Bad charset encoding in widget description\relax }{figure.caption.263}{}}
\@writefile{toc}{\contentsline {subsection}{\numberline {7.4.3}Validating resource example}{63}{subsection.264}}
\@writefile{lof}{\contentsline {figure}{\numberline {7.9}{\ignorespaces Google maps api service in admin interface\relax }}{63}{figure.caption.265}}
\newlabel{fig:googlemapsapi}{{7.9}{63}{Google maps api service in admin interface\relax }{figure.caption.265}{}}
\@writefile{toc}{\contentsline {section}{\numberline {7.5}Web developer interface}{64}{section.266}}
\newlabel{lst:runranking}{{7.5}{64}{}{lstlisting.267}{}}
\@writefile{lof}{\contentsline {figure}{\numberline {7.10}{\ignorespaces OMR Developer interface main\relax }}{64}{figure.caption.269}}
\newlabel{fig:searchservice}{{7.10}{64}{OMR Developer interface main\relax }{figure.caption.269}{}}
\@writefile{lof}{\contentsline {figure}{\numberline {7.11}{\ignorespaces Search service button\relax }}{65}{figure.caption.270}}
\newlabel{fig:searchservice}{{7.11}{65}{Search service button\relax }{figure.caption.270}{}}
\@writefile{lof}{\contentsline {figure}{\numberline {7.12}{\ignorespaces Select saved search or create a new one\relax }}{65}{figure.caption.271}}
\newlabel{fig:selectsearch}{{7.12}{65}{Select saved search or create a new one\relax }{figure.caption.271}{}}
\@writefile{lof}{\contentsline {figure}{\numberline {7.13}{\ignorespaces Select filters for the search\relax }}{65}{figure.caption.272}}
\newlabel{fig:selectfilters}{{7.13}{65}{Select filters for the search\relax }{figure.caption.272}{}}
\@writefile{lof}{\contentsline {figure}{\numberline {7.14}{\ignorespaces Show results\relax }}{66}{figure.caption.273}}
\newlabel{fig:selectsearch}{{7.14}{66}{Show results\relax }{figure.caption.273}{}}
\@writefile{lof}{\contentsline {figure}{\numberline {7.15}{\ignorespaces Found services by the semantic module\relax }}{66}{figure.caption.274}}
\newlabel{fig:foundservices}{{7.15}{66}{Found services by the semantic module\relax }{figure.caption.274}{}}
\@writefile{lof}{\contentsline {figure}{\numberline {7.16}{\ignorespaces Extended service info\relax }}{67}{figure.caption.275}}
\newlabel{fig:extendedinfo}{{7.16}{67}{Extended service info\relax }{figure.caption.275}{}}
\@writefile{toc}{\contentsline {section}{\numberline {7.6}Conclusions}{67}{section.276}}
\@setckpt{5-use-case}{
\setcounter{page}{68}
\setcounter{equation}{0}
\setcounter{enumi}{0}
\setcounter{enumii}{0}
\setcounter{enumiii}{0}
\setcounter{enumiv}{0}
\setcounter{footnote}{0}
\setcounter{mpfootnote}{0}
\setcounter{part}{0}
\setcounter{chapter}{7}
\setcounter{section}{6}
\setcounter{subsection}{0}
\setcounter{subsubsection}{0}
\setcounter{paragraph}{0}
\setcounter{subparagraph}{0}
\setcounter{figure}{16}
\setcounter{table}{5}
\setcounter{parentequation}{0}
\setcounter{cor}{0}
\setcounter{thm}{0}
\setcounter{ContinuedFloat}{0}
\setcounter{KVtest}{0}
\setcounter{subfigure}{0}
\setcounter{subfigure@save}{2}
\setcounter{lofdepth}{1}
\setcounter{subtable}{0}
\setcounter{subtable@save}{0}
\setcounter{lotdepth}{1}
\setcounter{lstnumber}{2}
\setcounter{Item}{0}
\setcounter{Hfootnote}{3}
\setcounter{bookmark@seq@number}{87}
\setcounter{lstlisting}{4}
\setcounter{section@level}{0}
}
