\relax 
\providecommand\hyper@newdestlabel[2]{}
\@writefile{toc}{\contentsline {chapter}{\numberline {5}Case study}{39}{chapter.147}}
\@writefile{lof}{\addvspace {10\p@ }}
\@writefile{lot}{\addvspace {10\p@ }}
\newlabel{chap:casestudy}{{5}{39}{Case study}{chapter.147}{}}
\@writefile{toc}{\contentsline {section}{\numberline {5.1}Introduction}{39}{section.148}}
\@writefile{toc}{\contentsline {section}{\numberline {5.2}Welcome Use Case}{39}{section.149}}
\@writefile{lof}{\contentsline {figure}{\numberline {5.1}{\ignorespaces Case Use: Welcome\relax }}{40}{figure.caption.150}}
\newlabel{fig:elementcatalog}{{5.1}{40}{Case Use: Welcome\relax }{figure.caption.150}{}}
\@writefile{lof}{\contentsline {figure}{\numberline {5.2}{\ignorespaces Welcome Use Case Conversations\relax }}{41}{figure.caption.151}}
\newlabel{fig:elementcatalog}{{5.2}{41}{Welcome Use Case Conversations\relax }{figure.caption.151}{}}
\@writefile{lof}{\contentsline {figure}{\numberline {5.3}{\ignorespaces Welcome Use Case Environment\relax }}{41}{figure.caption.152}}
\newlabel{fig:elementcatalog}{{5.3}{41}{Welcome Use Case Environment\relax }{figure.caption.152}{}}
\@writefile{toc}{\contentsline {section}{\numberline {5.3}Reminder Use Case}{42}{section.153}}
\@writefile{lof}{\contentsline {figure}{\numberline {5.4}{\ignorespaces Case Use: Reminder using Google Home\relax }}{42}{figure.caption.154}}
\newlabel{fig:elementcatalog}{{5.4}{42}{Case Use: Reminder using Google Home\relax }{figure.caption.154}{}}
\@writefile{toc}{\contentsline {section}{\numberline {5.4}Task Automation Use Case}{43}{section.155}}
\@writefile{lof}{\contentsline {figure}{\numberline {5.5}{\ignorespaces Case Use: Task Automation\relax }}{44}{figure.caption.156}}
\newlabel{fig:elementcatalog}{{5.5}{44}{Case Use: Task Automation\relax }{figure.caption.156}{}}
\@writefile{toc}{\contentsline {section}{\numberline {5.5}Context Awareness Use Case}{44}{section.157}}
\@writefile{lof}{\contentsline {figure}{\numberline {5.6}{\ignorespaces Case Use: Context Awareness\relax }}{45}{figure.caption.158}}
\newlabel{fig:elementcatalog}{{5.6}{45}{Case Use: Context Awareness\relax }{figure.caption.158}{}}
\@writefile{toc}{\contentsline {section}{\numberline {5.6}Conclusions}{45}{section.159}}
\newlabel{sec:conclusions}{{5.6}{45}{Conclusions}{section.159}{}}
\@setckpt{5-usecase}{
\setcounter{page}{46}
\setcounter{equation}{0}
\setcounter{enumi}{0}
\setcounter{enumii}{0}
\setcounter{enumiii}{0}
\setcounter{enumiv}{0}
\setcounter{footnote}{0}
\setcounter{mpfootnote}{0}
\setcounter{part}{0}
\setcounter{chapter}{5}
\setcounter{section}{6}
\setcounter{subsection}{0}
\setcounter{subsubsection}{0}
\setcounter{paragraph}{0}
\setcounter{subparagraph}{0}
\setcounter{figure}{6}
\setcounter{table}{0}
\setcounter{AM@survey}{0}
\setcounter{parentequation}{0}
\setcounter{cor}{0}
\setcounter{thm}{0}
\setcounter{ContinuedFloat}{0}
\setcounter{KVtest}{0}
\setcounter{subfigure}{0}
\setcounter{subfigure@save}{0}
\setcounter{lofdepth}{1}
\setcounter{subtable}{0}
\setcounter{subtable@save}{0}
\setcounter{lotdepth}{1}
\setcounter{lstnumber}{2}
\setcounter{Item}{0}
\setcounter{Hfootnote}{6}
\setcounter{bookmark@seq@number}{65}
\setcounter{lstlisting}{0}
\setcounter{section@level}{0}
}
