\relax 
\providecommand\hyper@newdestlabel[2]{}
\@writefile{toc}{\contentsline {chapter}{\numberline {6}Conclusions and future work}{47}{chapter.160}}
\@writefile{lof}{\addvspace {10\p@ }}
\@writefile{lot}{\addvspace {10\p@ }}
\newlabel{chap:conclusions}{{6}{47}{Conclusions and future work}{chapter.160}{}}
\@writefile{toc}{\contentsline {section}{\numberline {6.1}Introduction}{47}{section.161}}
\@writefile{toc}{\contentsline {section}{\numberline {6.2}Conclusions}{47}{section.162}}
\newlabel{sec:conconclusions}{{6.2}{47}{Conclusions}{section.162}{}}
\@writefile{toc}{\contentsline {section}{\numberline {6.3}Api.ai vs IBM Watson}{48}{section.163}}
\@writefile{toc}{\contentsline {section}{\numberline {6.4}Achieved goals}{49}{section.164}}
\newlabel{sec:achievedgoals}{{6.4}{49}{Achieved goals}{section.164}{}}
\@writefile{toc}{\contentsline {section}{\numberline {6.5}Problems faced}{49}{section.165}}
\newlabel{sec:problemsfaced}{{6.5}{49}{Problems faced}{section.165}{}}
\@writefile{toc}{\contentsline {section}{\numberline {6.6}Future work}{50}{section.166}}
\newlabel{sec:futurework}{{6.6}{50}{Future work}{section.166}{}}
\@setckpt{6-conclusions}{
\setcounter{page}{51}
\setcounter{equation}{0}
\setcounter{enumi}{0}
\setcounter{enumii}{0}
\setcounter{enumiii}{0}
\setcounter{enumiv}{0}
\setcounter{footnote}{0}
\setcounter{mpfootnote}{0}
\setcounter{part}{0}
\setcounter{chapter}{6}
\setcounter{section}{6}
\setcounter{subsection}{0}
\setcounter{subsubsection}{0}
\setcounter{paragraph}{0}
\setcounter{subparagraph}{0}
\setcounter{figure}{0}
\setcounter{table}{0}
\setcounter{AM@survey}{0}
\setcounter{parentequation}{0}
\setcounter{cor}{0}
\setcounter{thm}{0}
\setcounter{ContinuedFloat}{0}
\setcounter{KVtest}{0}
\setcounter{subfigure}{0}
\setcounter{subfigure@save}{0}
\setcounter{lofdepth}{1}
\setcounter{subtable}{0}
\setcounter{subtable@save}{0}
\setcounter{lotdepth}{1}
\setcounter{lstnumber}{2}
\setcounter{Item}{0}
\setcounter{Hfootnote}{6}
\setcounter{bookmark@seq@number}{72}
\setcounter{lstlisting}{0}
\setcounter{section@level}{0}
}
