\relax 
\providecommand\hyper@newdestlabel[2]{}
\@writefile{toc}{\contentsline {chapter}{\numberline {B}OMELETTE Mashup Registry (OMR)}{113}{appendix.816}}
\@writefile{lof}{\addvspace {10\p@ }}
\@writefile{lot}{\addvspace {10\p@ }}
\@writefile{toc}{\contentsline {section}{\numberline {B.1}Installation of Sesame with uSeekM (+PostgreSQL +PostGIS)}{113}{section.817}}
\@writefile{toc}{\contentsline {section}{\numberline {B.2}Installation of the DataGridService}{116}{section.878}}
\@writefile{toc}{\contentsline {section}{\numberline {B.3}User manual}{117}{section.890}}
\@setckpt{Appendix-omr}{
\setcounter{page}{120}
\setcounter{equation}{0}
\setcounter{enumi}{0}
\setcounter{enumii}{0}
\setcounter{enumiii}{0}
\setcounter{enumiv}{0}
\setcounter{footnote}{0}
\setcounter{mpfootnote}{0}
\setcounter{part}{0}
\setcounter{chapter}{2}
\setcounter{section}{3}
\setcounter{subsection}{0}
\setcounter{subsubsection}{0}
\setcounter{paragraph}{0}
\setcounter{subparagraph}{0}
\setcounter{figure}{0}
\setcounter{table}{0}
\setcounter{parentequation}{0}
\setcounter{cor}{0}
\setcounter{thm}{0}
\setcounter{ContinuedFloat}{0}
\setcounter{KVtest}{0}
\setcounter{subfigure}{0}
\setcounter{subfigure@save}{2}
\setcounter{lofdepth}{1}
\setcounter{subtable}{0}
\setcounter{subtable@save}{0}
\setcounter{lotdepth}{1}
\setcounter{lstnumber}{18}
\setcounter{Item}{0}
\setcounter{Hfootnote}{25}
\setcounter{bookmark@seq@number}{105}
\setcounter{lstlisting}{0}
\setcounter{section@level}{0}
}
