\relax 
\providecommand\hyper@newdestlabel[2]{}
\providecommand\HyperFirstAtBeginDocument{\AtBeginDocument}
\HyperFirstAtBeginDocument{\ifx\hyper@anchor\@undefined
\global\let\oldcontentsline\contentsline
\gdef\contentsline#1#2#3#4{\oldcontentsline{#1}{#2}{#3}}
\global\let\oldnewlabel\newlabel
\gdef\newlabel#1#2{\newlabelxx{#1}#2}
\gdef\newlabelxx#1#2#3#4#5#6{\oldnewlabel{#1}{{#2}{#3}}}
\AtEndDocument{\ifx\hyper@anchor\@undefined
\let\contentsline\oldcontentsline
\let\newlabel\oldnewlabel
\fi}
\fi}
\global\let\hyper@last\relax 
\gdef\HyperFirstAtBeginDocument#1{#1}
\providecommand\HyField@AuxAddToFields[1]{}
\providecommand\HyField@AuxAddToCoFields[2]{}
\@input{0-preamble.aux}
\@input{A-resumen.aux}
\@input{B-abstract.aux}
\@input{D-agradecimientos.aux}
\@input{E-contents.aux}
\@input{1-introduction.aux}
\@input{2-enablingtechnologies.aux}
\@input{3-requisites.aux}
\@input{4-architecture.aux}
\@input{5-usecase.aux}
\@input{6-conclusions.aux}
\bibstyle{plain}
\bibdata{bibliografia/ref}
\bibcite{apiai}{1}
\bibcite{choi2015smart}{2}
\bibcite{ewe}{3}
\bibcite{coronado2016task}{4}
\bibcite{estimote}{5}
\bibcite{ewetasker_app}{6}
\bibcite{ferreira2013human}{7}
\bibcite{webhook}{8}
\bibcite{actions}{9}
\bibcite{home}{10}
\bibcite{watson}{11}
\bibcite{kelly2013smart}{12}
\bibcite{mip_protocol}{13}
\bibcite{mast2015design}{14}
\bibcite{ewetasker}{15}
\bibcite{rdf}{16}
\@writefile{toc}{\contentsline {chapter}{Bibliography}{I}{section*.167}}
\bibcite{time}{17}
\bibcite{mip_python}{18}
\bibcite{mip}{19}
